Visualizing Racial Skewing in Police Traffic Stop
…
3. Tidy preprocessed data

Tidy data_filtered to calculate the percentage of drivers (% Drivers) by race in police stop. Then we get data1, which is used to draw graphs later.

data1 <- data_filtered %>%
  group_by(year, driver_race) %>%
  summarise(SumByRaceYear = n()) %>%
  nest(- year) %>%
  mutate(SumByYear = map(data, ~ sum(.$SumByRaceYear))) %>%
  unnest(SumByYear) %>%
  unnest(data) %>%
  mutate(Percent = SumByRaceYear / SumByYear)
data1

## # A tibble: 35 x 5
##    year  SumByYear driver_race SumByRaceYear Percent
##    <chr>     <int> <fct>               <int>   <dbl>
##  1 2010     675109 Asian                7626  0.0113
##  2 2010     675109 Black              124668  0.185 
##  3 2010     675109 Hispanic           128240  0.190 
##  4 2010     675109 Other               15897  0.0235
##  5 2010     675109 White              398678  0.591 
##  6 2011     869799 Asian               10527  0.0121
##  7 2011     869799 Black              163210  0.188 
##  8 2011     869799 Hispanic           177359  0.204 
##  9 2011     869799 Other               21563  0.0248
## 10 2011     869799 White              497140  0.572 
## # ... with 25 more rows
…
